Mini-Project 04 - Just the Fact(-Check)s, Ma’am! – STA 9750 2025 Submission Material
…
head(ces_req)

[[1]]
# A tibble: 48 × 13
   Year  Jan   Feb   Mar   Apr   May   Jun   Jul   Aug   Sep   Oct   Nov   Dec  
   <chr> <chr> <chr> <chr> <chr> <chr> <chr> <chr> <chr> <chr> <chr> <chr> <chr>
 1 1979  88808 89055 89479 89417 89789 90108 90217 90300 90327 90481 90573 90672
 2 1980  90800 90883 90994 90849 90420 90101 89840 90099 90213 90490 90747 90943
 3 1981  91033 91105 91210 91283 91296 91490 91601 91565 91477 91380 91171 90895
 4 1982  90565 90563 90434 90150 90107 89865 89521 89363 89183 88907 88786 88771
 5 1983  88990 88917 89090 89364 89644 90021 90437 90129 91247 91520 91875 92230
 6 1984  92673 93157 93429 93792 94098 94479 94789 95032 95344 95629 95982 96107
 7 1985  96372 96503 96842 97038 97312 97459 97648 97840 98045 98233 98443 98609
 8 1986  98732 98847 98934 99121 99248 99155 99473 99588 99934 1001… 1003… 1005…
 9 1987  1006… 1009… 1011… 1014… 1017… 1019… 1022… 1024… 1026… 1031… 1033… 1036…
10 1988  1037… 1042… 1044… 1047… 1049… 1053… 1055… 1056… 1060… 1062… 1066… 1068…
# ℹ 38 more rows
…
